{
    "mainWindow": {
        "name": "Ape",
        "creator": "ApeOgreRenderPlugin"
    },
    "sceneSession": {
        "participantType": "Guest",
        "uniqueUserNamePrefix": "GuestMonitor",
        "sessionGUID": "846676826375730042",
        "sessionResourceLocation": [
            "/plugins/industry40/resources"
        ],
        "natPunchThroughServer": {
            "ip": "195.111.2.95",
            "port": "61666"
        },
        "lobbyServer": {
            "ip": "195.111.2.95",
            "port": "8888"
        }
    },
    "pluginManager": {
        "plugins": [
            "ApeOgreRenderPlugin",
            "ApeOisUserInputPlugin"
        ]
    }
}