{
	"renderSystem" : "DX9",
	"lodLevels" : {
			"autoGenerateAndSave": false,
			"bias" : 0.5 
		},
    "renderWindows": [
        {
			"enable": true,
            "monitorIndex": 0,
			"name": "0",
            "resolution": {
                "width": 1400,
                "height": 1050,
                "fullScreen": true
            },
            "miscParams": {
                "vSync": true,
                "vSyncInterval": 1,
                "colorDepth": 32,
                "FSAA": 8,
                "FSAAHint": "Quality"
            },
            "viewports": [
                {
                    "zOrder": 0,
                    "left": 0,
                    "top": 0,
                    "width": 1400,
                    "height": 1050,
                    "camera": {
						"name": "0",
                        "nearClip": 1,
                        "farClip": 10000,
                        "fovY": 45
                    }
                }
            ]
        },
        {
			"enable": true,
            "monitorIndex": 1,
			"name": "1",
            "resolution": {
                "width": 1400,
                "height": 1050,
                "fullScreen": true
            },
            "miscParams": {
                "vSync": true,
                "vSyncInterval": 1,
                "colorDepth": 32,
                "FSAA": 8,
                "FSAAHint": "Quality"
            },
            "viewports": [
                {
                    "zOrder": 0,
                    "left": 0,
                    "top": 0,
                    "width": 1400,
                    "height": 1050,
                    "camera": {
						"name": "1",
                        "nearClip": 1,
                        "farClip": 10000,
                        "fovY": 45
                    }
                }
            ]
        },
		{
			"enable": true,
            "monitorIndex": 2,
			"name": "2",
            "resolution": {
                "width": 1400,
                "height": 1050,
                "fullScreen": true
            },
            "miscParams": {
                "vSync": true,
                "vSyncInterval": 1,
                "colorDepth": 32,
                "FSAA": 8,
                "FSAAHint": "Quality"
            },
            "viewports": [
                {
                    "zOrder": 0,
                    "left": 0,
                    "top": 0,
                    "width": 1400,
                    "height": 1050,
                    "camera": {
					    "name": "2",
                        "nearClip": 1,
                        "farClip": 10000,
                        "fovY": 45
                    }
                }
            ]
        },
        {
			"enable": true,
            "monitorIndex": 3,
			"name": "3",
            "resolution": {
                "width": 1400,
                "height": 1050,
                "fullScreen": true
            },
            "miscParams": {
                "vSync": true,
                "vSyncInterval": 1,
                "colorDepth": 32,
                "FSAA": 8,
                "FSAAHint": "Quality"
            },
            "viewports": [
                {
                    "zOrder": 0,
                    "left": 0,
                    "top": 0,
                    "width": 1400,
                    "height": 1050,
                    "camera": {
						"name": "3",
                        "nearClip": 1,
                        "farClip": 10000,
                        "fovY": 45
                    }
                }
            ]
        }
    ]
}